# Blender v2.78 (sub 0) OBJ File: 'untitled.blend'
# www.blender.org
mtllib untitled.mtl
o Cube_LOD1_Cube.001
v 1.000000 0.000790 -1.000000
v 1.000000 0.000790 1.000000
v -1.000165 0.077989 1.017802
v -1.000000 0.000790 -1.000000
v 1.000000 2.000790 -0.999999
v 0.999999 2.000790 1.000001
v -1.000000 2.000790 1.000000
v -1.000000 2.000790 -1.000000
v -1.000000 1.719305 -1.000000
v 1.000000 1.719305 1.000000
v -1.000000 1.719305 1.000000
v 1.000000 1.719305 -1.000000
v -0.800000 0.282275 -0.800000
v -0.800000 1.719305 -0.800000
v 0.949889 0.344241 0.871267
v 0.800000 0.282275 -0.800000
v 0.800000 1.719305 -0.800000
v -1.000000 0.282275 -0.800000
v -1.000000 1.719305 -0.800000
v 1.000000 0.282275 -0.800000
v 1.000235 1.788505 -0.772665
v -0.800000 0.282275 -1.000000
v 0.800000 0.362110 -1.000000
v 0.800000 1.719305 -1.000000
v -0.800000 1.719305 -1.000000
v 0.933333 0.282276 0.602443
v -0.933333 0.282275 0.602443
v -0.800000 1.719305 -0.515137
v 0.800000 1.719305 -0.515137
v -1.000000 1.719305 -0.516674
v 0.800000 1.719305 0.800000
v -0.800000 1.719305 0.800000
v -0.799992 0.409824 0.800002
v 0.250007 1.719305 0.800000
v -0.250008 1.719305 0.800000
v -0.168083 1.282861 0.800000
v 0.168083 1.282861 0.800000
v 0.298340 1.719873 1.036279
v 0.323408 2.021893 1.021535
v -0.000000 1.385983 1.054146
v -0.294532 1.722264 1.042977
v -0.328388 2.013383 1.010731
v 0.333334 2.000790 -1.000000
v -0.333333 2.000790 -1.000000
v -0.800000 0.441945 -0.800000
v -0.800000 0.601615 -0.800000
v -0.800000 0.761285 -0.800000
v -0.800000 0.920955 -0.800000
v -0.800000 1.080625 -0.800000
v -0.800000 1.240295 -0.800000
v -0.800000 1.399965 -0.800000
v -0.800000 1.559635 -0.800000
v 0.800000 0.441945 -0.800000
v 0.800000 0.601615 -0.800000
v 0.800000 0.761285 -0.800000
v 0.800000 0.920955 -0.800000
v 0.800000 1.080625 -0.800000
v 0.800000 1.240295 -0.800000
v 0.800000 1.399965 -0.800000
v 0.800000 1.559635 -0.800000
v -0.800000 1.479800 -1.000000
v -0.800000 1.160460 -1.000000
v -0.800000 0.841120 -1.000000
v -0.800000 0.521780 -1.000000
v 0.800000 0.761285 -1.000000
v 0.800000 1.160460 -1.000000
v 0.800000 1.479800 -1.000000
v 1.000000 1.240295 -0.333847
v 1.000000 0.761285 0.132305
v 0.800000 1.240295 -0.329861
v 0.800000 0.761285 0.140277
v -1.000000 1.240295 -0.333848
v -1.000000 0.761285 0.132305
v -0.800000 1.240295 -0.329862
v -0.800000 0.761285 0.140277
v 1.000556 0.654014 -0.454212
v 0.800000 0.797047 -0.544825
v 0.800000 0.557542 -0.309755
v -1.000139 0.654027 -0.454224
v -0.800000 0.797047 -0.544825
v -0.800000 0.557542 -0.309755
v 0.793978 0.344241 0.871267
vn 0.0000 -1.0000 0.0000
vn 0.0115 0.0432 0.9990
vn 0.0000 -0.0000 1.0000
vn -0.0665 -0.0093 0.9977
vn -1.0000 0.0000 -0.0000
vn 0.9781 0.1895 -0.0858
vn -0.0000 1.0000 0.0000
vn 1.0000 0.0000 0.0000
vn 0.0285 -0.6982 -0.7154
vn -0.0000 -0.9266 0.3760
vn -0.9676 -0.1816 -0.1751
vn 0.9636 -0.1809 -0.1967
vn 0.6075 -0.5102 0.6088
vn -0.6068 -0.5112 0.6087
vn 0.0308 0.9995 -0.0103
vn -0.0186 0.9998 -0.0062
vn -0.0285 -0.6982 -0.7154
vn 1.0000 0.0008 0.0008
vn -0.9781 0.1895 -0.0858
vn -0.9817 0.1662 -0.0933
vn 0.9817 0.1662 -0.0933
vn -0.0064 0.9999 -0.0084
vn 1.0000 0.0005 0.0000
vn 0.0220 0.3537 0.9351
vn 0.0000 0.0000 -1.0000
vn -0.9896 0.1432 0.0160
vn 0.9923 0.1232 0.0094
vn 0.1672 -0.9857 -0.0221
vn 1.0000 -0.0001 -0.0005
vn -0.0245 0.9804 0.1957
vn 0.1563 -0.6546 -0.7397
vn -0.0192 -0.9996 0.0192
vn 0.9962 0.0330 0.0808
vn -0.9954 -0.0756 -0.0585
vn -0.0358 0.0519 0.9980
vn 0.0000 0.7100 0.7042
vn -0.0037 0.0789 0.9969
vn 0.5182 0.6346 0.5734
vn -0.0427 0.0473 0.9980
vn -0.0004 -1.0000 0.0015
vn 0.0021 -1.0000 0.0078
vn -0.0395 0.0539 0.9978
vn 0.0423 0.0234 0.9988
vn -0.0000 0.9287 -0.3707
vn 0.0000 -0.9287 -0.3707
vn 0.0214 0.8578 -0.5136
vn -0.0245 -0.9804 -0.1957
vn -0.0732 0.9780 0.1952
vn -0.0498 -0.9988 0.0000
vn 0.0071 -0.6989 -0.7152
vn -0.3223 -0.9067 0.2721
vn 0.3015 0.2954 -0.9065
vn 0.1748 -0.6897 -0.7027
vn -0.1744 -0.6897 -0.7027
vn -1.0000 0.0002 0.0002
vn 0.3220 -0.9068 0.2722
vn -0.3018 0.2953 -0.9065
vn -0.0134 0.5499 0.8351
vn -0.1841 0.6828 0.7070
vn 1.0000 -0.0044 0.0000
usemtl Material
s off
f 24//1 12//1 17//1
f 40//2 38//2 41//2
f 45//3 46//3 47//3 48//3 49//3 50//3 51//3 52//3 14//3 19//3 18//3 13//3
f 57//4 56//4 55//4 54//4 53//4 16//4 20//4 21//4 17//4 60//4 59//4 58//4
f 24//5 67//5 60//5 17//5
f 31//3 34//3 37//3
f 78//6 71//6 26//6
f 27//7 13//7 18//7
f 77//8 17//8 70//8
f 75//9 27//9 73//9
f 37//10 40//10 36//10
f 35//11 36//11 41//11
f 34//12 38//12 37//12
f 40//13 37//13 38//13
f 36//14 40//14 41//14
f 39//15 6//15 43//15
f 7//16 42//16 44//16
f 44//7 8//7 7//7
f 6//7 5//7 43//7
f 53//5 23//5 16//5
f 55//5 65//5 54//5
f 26//17 71//17 69//17
f 69//18 76//18 68//18
f 80//5 74//5 14//5
f 81//19 27//19 75//19
f 13//20 27//20 81//20
f 13//5 81//5 80//5
f 13//5 80//5 14//5
f 26//21 16//21 78//21
f 77//8 16//8 17//8
f 78//8 16//8 77//8
f 44//22 42//22 39//22 43//22
f 5//23 6//23 10//23 21//23 12//23
f 25//1 24//1 17//1 14//1
f 7//5 8//5 9//5 19//5 30//5 11//5
f 14//1 9//1 25//1
f 15//24 3//24 2//24
f 4//25 22//25 23//25 1//25
f 3//26 27//26 18//26 4//26
f 2//27 1//27 20//27 26//27 15//27
f 60//25 52//25 14//25 17//25
f 31//28 29//28 21//28 10//28
f 28//5 33//5 32//5
f 64//25 22//25 4//25 9//25 25//25 61//25 62//25 63//25
f 8//25 44//25 43//25 5//25 12//25 24//25 25//25 9//25
f 19//5 9//5 4//5 18//5
f 12//29 21//29 20//29 1//29
f 12//25 1//25 23//25 65//25 66//25 67//25 24//25
f 52//8 61//8 25//8 14//8
f 16//30 23//30 22//30 13//30
f 17//31 21//31 68//31 70//31
f 26//7 20//7 16//7
f 4//32 1//32 2//32 3//32
f 32//1 11//1 30//1 28//1
f 69//33 68//33 21//33 15//33 26//33
f 3//34 30//34 19//34 72//34 73//34 27//34
f 37//35 82//35 31//35
f 29//36 82//36 15//36
f 39//37 42//37 41//37 38//37
f 29//38 15//38 21//38
f 32//3 36//3 35//3
f 37//39 33//39 82//39
f 33//3 36//3 32//3
f 33//3 37//3 36//3
f 31//40 10//40 38//40 34//40
f 41//41 11//41 32//41 35//41
f 42//42 7//42 11//42 41//42
f 38//43 10//43 6//43 39//43
f 13//8 22//8 64//8 45//8
f 46//8 64//8 63//8 47//8
f 48//8 63//8 62//8 49//8
f 50//8 62//8 61//8 51//8
f 16//25 13//25 45//25 53//25
f 54//25 46//25 47//25 55//25
f 56//25 48//25 49//25 57//25
f 58//44 66//44 62//44 50//44
f 58//25 50//25 51//25 59//25
f 57//45 49//45 62//45 66//45
f 56//46 65//46 63//46 48//46
f 55//47 47//47 63//47 65//47
f 65//5 56//5 57//5 66//5
f 54//48 65//48 64//48 46//48
f 67//5 66//5 58//5 59//5
f 53//49 45//49 64//49 23//49
f 51//45 61//45 67//45 59//45
f 67//44 61//44 52//44 60//44
f 72//50 19//50 14//50 74//50
f 65//25 23//25 64//25
f 81//51 75//51 73//51 79//51
f 77//52 70//52 68//52 76//52
f 81//8 80//8 74//8 75//8
f 80//53 81//53 79//53
f 76//54 78//54 77//54
f 78//5 71//5 70//5 77//5
f 73//55 72//55 79//55
f 78//56 76//56 69//56 71//56
f 80//57 79//57 72//57 74//57
f 82//58 33//58 3//58 15//58
f 28//59 30//59 3//59 33//59
f 82//60 29//60 31//60
o Cube_LOD0_Cube
v 1.000000 0.000790 -1.000000
v 1.000000 0.000790 1.000000
v -1.000000 0.000790 1.000000
v -1.000000 0.000790 -1.000000
v 1.000000 2.000790 -0.999999
v 0.999999 2.000790 1.000001
v -1.000000 2.000790 1.000000
v -1.000000 2.000790 -1.000000
v -1.000000 0.282275 -1.000000
v -1.000000 1.719305 -1.000000
v 1.000000 0.282275 0.923401
v 1.000000 1.719305 1.000000
v -1.000000 0.282275 0.923400
v -1.000000 1.719305 1.000000
v 1.000000 0.282275 -1.000000
v 1.000000 1.719305 -1.000000
v -0.800000 0.282275 -0.800000
v -0.800000 1.719305 -0.800000
v 0.800000 0.409971 0.800000
v 0.800000 1.719305 0.800000
v -0.800000 0.409971 0.800000
v -0.800000 1.719305 0.800000
v 0.800000 0.282275 -0.800000
v 0.800000 1.719305 -0.800000
v -1.000000 0.282275 -0.800000
v -1.000000 1.719305 -0.800000
v 1.000000 0.282275 -0.800000
v 1.000000 1.719305 -0.800000
v -0.800000 0.282275 -1.000000
v 0.800000 0.282275 -1.000000
v 0.800000 1.719305 -1.000000
v -0.800000 1.719305 -1.000000
v 1.000000 0.282275 0.598457
v 1.000000 1.719305 -0.516674
v -0.800000 0.282275 0.610415
v -0.800000 1.719305 -0.515137
v 0.800000 0.282275 0.610415
v 0.800000 1.719305 -0.515137
v -1.000000 0.282275 0.598457
v -1.000000 1.719305 -0.516674
v 0.800000 0.282275 0.923401
v -0.800000 0.282275 0.923400
v 0.800000 0.846416 0.800000
v 0.800000 1.282861 0.800000
v -0.800000 0.846416 0.800000
v -0.800000 1.282861 0.800000
v 0.266666 0.409971 0.800000
v -0.266667 0.409971 0.800000
v 0.250007 1.719305 0.800000
v -0.250008 1.719305 0.800000
v -0.266667 0.846416 0.800000
v -0.168083 1.282861 0.800000
v 0.266666 0.846416 0.800000
v 0.168083 1.282861 0.800000
v 0.333333 1.719305 1.000000
v -0.333334 1.719305 1.000000
v 0.333333 2.000790 1.000000
v -0.333334 2.000790 1.000000
v -0.090774 1.400815 1.044697
v 0.090773 1.400815 1.044697
v 0.236126 1.719305 1.078255
v -0.236127 1.719305 1.078255
v 0.236126 2.000790 1.078255
v -0.236127 2.000790 1.078254
v 0.333333 2.063466 1.000000
v -0.333334 2.063466 1.000000
v 0.333334 2.000790 -1.000000
v -0.333333 2.000790 -1.000000
v -0.800000 0.441945 -0.800000
v -0.800000 0.601615 -0.800000
v -0.800000 0.761285 -0.800000
v -0.800000 0.920955 -0.800000
v -0.800000 1.080625 -0.800000
v -0.800000 1.240295 -0.800000
v -0.800000 1.399965 -0.800000
v -0.800000 1.559635 -0.800000
v 0.800000 0.441945 -0.800000
v 0.800000 0.601615 -0.800000
v 0.800000 0.761285 -0.800000
v 0.800000 0.920955 -0.800000
v 0.800000 1.080625 -0.800000
v 0.800000 1.240295 -0.800000
v 0.800000 1.399965 -0.800000
v 0.800000 1.559635 -0.800000
v -0.800000 1.559635 -1.000000
v -0.800000 1.399965 -1.000000
v -0.800000 1.240295 -1.000000
v -0.800000 1.080625 -1.000000
v -0.800000 0.920955 -1.000000
v -0.800000 0.761285 -1.000000
v -0.800000 0.601615 -1.000000
v -0.800000 0.441945 -1.000000
v 0.800000 0.441945 -1.000000
v 0.800000 0.601615 -1.000000
v 0.800000 0.761285 -1.000000
v 0.800000 0.920955 -1.000000
v 0.800000 1.080625 -1.000000
v 0.800000 1.240295 -1.000000
v 0.800000 1.399965 -1.000000
v 0.800000 1.559635 -1.000000
v 1.000000 1.240295 -0.333847
v 1.000000 0.761285 0.132305
v 0.800000 1.240295 -0.329861
v 0.800000 0.761285 0.140277
v -1.000000 1.240295 -0.333848
v -1.000000 0.761285 0.132305
v -0.800000 1.240295 -0.329862
v -0.800000 0.761285 0.140277
v 1.000000 0.797047 -0.546818
v 1.000000 0.557542 -0.313741
v 0.800000 0.797047 -0.544825
v 0.800000 0.557542 -0.309755
v -1.000000 0.797047 -0.546818
v -1.000000 0.557542 -0.313742
v -0.800000 0.797047 -0.544825
v -0.800000 0.557542 -0.309755
vn 0.0000 -1.0000 -0.0000
vn 0.0000 0.9995 -0.0313
vn 1.0000 -0.0000 0.0000
vn -1.0000 0.0000 -0.0000
vn -0.0000 -0.1048 0.9945
vn -0.0000 0.2626 0.9649
vn -0.0000 -0.0000 1.0000
vn 0.0000 0.0000 -1.0000
vn 0.0000 1.0000 0.0000
vn -0.0071 -0.6989 -0.7152
vn 0.0356 -0.6985 -0.7147
vn -0.0000 0.6949 0.7191
vn -0.0105 0.7076 0.7065
vn 0.0105 0.7076 0.7065
vn -0.0000 -0.9008 0.4342
vn 0.6271 0.0000 0.7790
vn -0.6271 0.0000 0.7790
vn -0.9095 -0.1707 -0.3789
vn 0.9095 -0.1707 -0.3789
vn 0.7943 -0.4098 0.4485
vn 0.5390 -0.5109 0.6696
vn -0.7943 -0.4098 0.4485
vn -0.5390 -0.5109 0.6696
vn 0.0071 -0.6989 -0.7152
vn -0.0124 -0.9102 0.4139
vn -0.0356 -0.6985 -0.7147
vn -0.0135 0.4347 -0.9005
vn 0.0107 -0.6989 -0.7151
vn -0.0107 -0.6989 -0.7151
vn 0.0124 -0.9102 0.4139
vn 0.0135 0.4347 -0.9005
usemtl Material
s off
f 83//61 84//61 85//61 86//61
f 148//62 147//62 149//62 150//62
f 94//63 116//63 110//63 98//63 87//63 88//63
f 92//64 108//64 122//64 96//64 89//64 90//64
f 100//61 92//61 114//61 113//61 98//61 106//61
f 141//65 142//65 143//65 144//65
f 85//66 84//66 93//66 123//66 124//66 95//66
f 108//67 107//67 99//67 151//67 152//67 153//67 154//67 155//67 156//67 157//67 158//67 100//67
f 83//68 86//68 91//68 111//68 112//68 97//68
f 86//64 85//64 95//64 121//64 107//64 91//64
f 109//67 110//67 106//67 166//67 165//67 164//67 163//67 162//67 161//67 160//67 159//67 105//67
f 84//63 83//63 97//63 109//63 115//63 93//63
f 166//64 106//64 113//64 182//64
f 136//67 126//67 102//67 131//67
f 158//68 100//68 106//68 166//68
f 104//64 118//64 103//64 127//64 128//64
f 120//61 116//61 94//61 102//61
f 194//63 186//63 119//63
f 90//68 150//68 149//68 87//68 98//68 113//68 114//68 92//68
f 111//68 91//68 92//68 114//68 167//68 168//68 169//68 170//68 171//68 172//68 173//68 174//68
f 92//64 91//64 107//64 108//64
f 112//68 175//68 176//68 177//68 178//68 179//68 180//68 181//68 182//68 113//68 98//68 97//68
f 110//63 109//63 97//63 98//63
f 167//63 114//63 100//63 158//63
f 112//69 111//69 99//69 105//69
f 115//69 109//69 105//69 119//69
f 121//69 117//69 99//69 107//69
f 183//70 185//70 106//70 110//70
f 96//61 122//61 118//61 104//61
f 93//63 115//63 184//63 183//63 110//63 116//63
f 193//63 106//63 185//63
f 188//71 190//71 117//71 121//71
f 108//64 187//64 188//64 121//64 95//64 122//64
f 102//63 126//63 125//63 101//63 120//63
f 103//72 124//72 123//72 101//72 129//72 130//72
f 124//73 103//73 118//73 122//73 95//73
f 116//74 120//74 101//74 123//74 93//74
f 128//67 134//67 132//67 104//67
f 144//67 143//67 145//67 146//67
f 103//67 130//67 133//67 127//67
f 127//67 133//67 134//67 128//67
f 130//67 129//67 135//67 133//67
f 133//67 135//67 136//67 134//67
f 129//67 101//67 125//67 135//67
f 135//67 125//67 126//67 136//67
f 134//75 136//75 142//75 141//75
f 94//61 137//61 131//61 102//61
f 96//61 104//61 132//61 138//61
f 89//67 96//67 138//67 140//67
f 88//67 139//67 137//67 94//67
f 137//76 139//76 145//76 143//76
f 140//77 138//77 144//77 146//77
f 139//69 140//69 146//69 145//69
f 132//78 134//78 138//78
f 131//79 137//79 136//79
f 142//80 136//80 143//80
f 137//81 143//81 136//81
f 134//82 141//82 144//82
f 144//83 138//83 134//83
f 140//67 139//67 147//67 148//67
f 140//64 148//64 150//64
f 147//63 139//63 149//63
f 139//69 88//69 149//69
f 89//69 140//69 150//69
f 150//69 90//69 89//69
f 88//69 87//69 149//69
f 111//63 174//63 151//63 99//63
f 173//63 172//63 153//63 152//63
f 171//63 170//63 155//63 154//63
f 169//63 168//63 157//63 156//63
f 99//68 151//68 159//68 105//68
f 152//68 153//68 161//68 160//68
f 154//68 155//68 163//68 162//68
f 169//69 156//69 164//69 180//69
f 156//68 157//68 165//68 164//68
f 170//61 179//61 163//61 155//61
f 105//64 159//64 175//64 112//64
f 171//69 154//69 162//69 178//69
f 160//64 161//64 177//64 176//64
f 172//61 177//61 161//61 153//61
f 162//64 163//64 179//64 178//64
f 173//69 152//69 160//69 176//69
f 164//64 165//64 181//64 180//64
f 174//61 175//61 159//61 151//61
f 168//61 181//61 165//61 157//61
f 167//69 158//69 166//69 182//69
f 173//68 176//68 175//68 174//68
f 171//68 178//68 177//68 172//68
f 169//68 180//68 179//68 170//68
f 167//68 182//68 181//68 168//68
f 108//84 100//84 189//84 187//84
f 190//85 188//85 196//85 198//85
f 115//86 119//86 186//86 184//86
f 185//87 183//87 191//87 193//87
f 195//88 197//88 198//88 196//88
f 192//89 194//89 193//89 191//89
f 189//63 190//63 198//63 197//63
f 188//64 187//64 195//64 196//64
f 186//64 185//64 193//64 194//64
f 183//63 184//63 192//63 191//63
f 184//90 186//90 194//90 192//90
f 187//91 189//91 197//91 195//91
f 197//64 189//64 100//64
f 198//64 117//64 190//64
f 99//64 117//64 198//64
f 99//64 198//64 197//64
f 99//64 197//64 100//64
f 119//63 105//63 194//63
f 193//63 105//63 106//63
f 194//63 105//63 193//63
