%YAML 1.1
%TAG !u! tag:unity3d.com,2011:
--- !u!21 &2100000
Material:
  serializedVersion: 6
  m_ObjectHideFlags: 0
  m_PrefabParentObject: {fileID: 0}
  m_PrefabInternal: {fileID: 0}
  m_Name: perete_T_LOD2
  m_Shader: {fileID: 10770, guid: 0000000000000000f000000000000000, type: 0}
  m_ShaderKeywords: 
  m_LightmapFlags: 4
  m_EnableInstancingVariants: 0
  m_DoubleSidedGI: 0
  m_CustomRenderQueue: -1
  stringTagMap: {}
  disabledShaderPasses: []
  m_SavedProperties:
    serializedVersion: 3
    m_TexEnvs:
    - _AlphaTex:
        m_Texture: {fileID: 0}
        m_Scale: {x: 1, y: 1}
        m_Offset: {x: 0, y: 0}
    - _BackTex:
        m_Texture: {fileID: 0}
        m_Scale: {x: 1, y: 1}
        m_Offset: {x: 0, y: 0}
    - _BumpMap:
        m_Texture: {fileID: 0}
        m_Scale: {x: 1, y: 1}
        m_Offset: {x: 0, y: 0}
    - _Control:
        m_Texture: {fileID: 0}
        m_Scale: {x: 1, y: 1}
        m_Offset: {x: 0, y: 0}
    - _Cube:
        m_Texture: {fileID: 0}
        m_Scale: {x: 1, y: 1}
        m_Offset: {x: 0, y: 0}
    - _DecalTex:
        m_Texture: {fileID: 0}
        m_Scale: {x: 1, y: 1}
        m_Offset: {x: 0, y: 0}
    - _Detail:
        m_Texture: {fileID: 0}
        m_Scale: {x: 1, y: 1}
        m_Offset: {x: 0, y: 0}
    - _DetailAlbedoMap:
        m_Texture: {fileID: 0}
        m_Scale: {x: 1, y: 1}
        m_Offset: {x: 0, y: 0}
    - _DetailBump:
        m_Texture: {fileID: 0}
        m_Scale: {x: 1, y: 1}
        m_Offset: {x: 0, y: 0}
    - _DetailMask:
        m_Texture: {fileID: 0}
        m_Scale: {x: 1, y: 1}
        m_Offset: {x: 0, y: 0}
    - _DetailNormalMap:
        m_Texture: {fileID: 0}
        m_Scale: {x: 1, y: 1}
        m_Offset: {x: 0, y: 0}
    - _DetailTex:
        m_Texture: {fileID: 0}
        m_Scale: {x: 1, y: 1}
        m_Offset: {x: 0, y: 0}
    - _DownTex:
        m_Texture: {fileID: 0}
        m_Scale: {x: 1, y: 1}
        m_Offset: {x: 0, y: 0}
    - _EmissionMap:
        m_Texture: {fileID: 0}
        m_Scale: {x: 1, y: 1}
        m_Offset: {x: 0, y: 0}
    - _FalloffTex:
        m_Texture: {fileID: 0}
        m_Scale: {x: 1, y: 1}
        m_Offset: {x: 0, y: 0}
    - _FrontTex:
        m_Texture: {fileID: 0}
        m_Scale: {x: 1, y: 1}
        m_Offset: {x: 0, y: 0}
    - _GlossMap:
        m_Texture: {fileID: 0}
        m_Scale: {x: 1, y: 1}
        m_Offset: {x: 0, y: 0}
    - _Illum:
        m_Texture: {fileID: 0}
        m_Scale: {x: 1, y: 1}
        m_Offset: {x: 0, y: 0}
    - _LeftTex:
        m_Texture: {fileID: 0}
        m_Scale: {x: 1, y: 1}
        m_Offset: {x: 0, y: 0}
    - _LightMap:
        m_Texture: {fileID: 0}
        m_Scale: {x: 1, y: 1}
        m_Offset: {x: 0, y: 0}
    - _LightTexture:
        m_Texture: {fileID: 0}
        m_Scale: {x: 1, y: 1}
        m_Offset: {x: 0, y: 0}
    - _MainBump:
        m_Texture: {fileID: 0}
        m_Scale: {x: 1, y: 1}
        m_Offset: {x: 0, y: 0}
    - _MainTex:
        m_Texture: {fileID: 2800000, guid: 3b64824d34dc5564d8410a10e488add8, type: 3}
        m_Scale: {x: 1, y: 1}
        m_Offset: {x: 0, y: 0}
    - _Mask:
        m_Texture: {fileID: 0}
        m_Scale: {x: 1, y: 1}
        m_Offset: {x: 0, y: 0}
    - _MetallicGlossMap:
        m_Texture: {fileID: 0}
        m_Scale: {x: 1, y: 1}
        m_Offset: {x: 0, y: 0}
    - _Normal0:
        m_Texture: {fileID: 0}
        m_Scale: {x: 1, y: 1}
        m_Offset: {x: 0, y: 0}
    - _Normal1:
        m_Texture: {fileID: 0}
        m_Scale: {x: 1, y: 1}
        m_Offset: {x: 0, y: 0}
    - _Normal2:
        m_Texture: {fileID: 0}
        m_Scale: {x: 1, y: 1}
        m_Offset: {x: 0, y: 0}
    - _Normal3:
        m_Texture: {fileID: 0}
        m_Scale: {x: 1, y: 1}
        m_Offset: {x: 0, y: 0}
    - _OcclusionMap:
        m_Texture: {fileID: 0}
        m_Scale: {x: 1, y: 1}
        m_Offset: {x: 0, y: 0}
    - _ParallaxMap:
        m_Texture: {fileID: 0}
        m_Scale: {x: 1, y: 1}
        m_Offset: {x: 0, y: 0}
    - _Ramp:
        m_Texture: {fileID: 0}
        m_Scale: {x: 1, y: 1}
        m_Offset: {x: 0, y: 0}
    - _RightTex:
        m_Texture: {fileID: 0}
        m_Scale: {x: 1, y: 1}
        m_Offset: {x: 0, y: 0}
    - _SecondTex:
        m_Texture: {fileID: 0}
        m_Scale: {x: 1, y: 1}
        m_Offset: {x: 0, y: 0}
    - _ShadowOffset:
        m_Texture: {fileID: 0}
        m_Scale: {x: 1, y: 1}
        m_Offset: {x: 0, y: 0}
    - _ShadowTex:
        m_Texture: {fileID: 0}
        m_Scale: {x: 1, y: 1}
        m_Offset: {x: 0, y: 0}
    - _SpecGlossMap:
        m_Texture: {fileID: 0}
        m_Scale: {x: 1, y: 1}
        m_Offset: {x: 0, y: 0}
    - _Splat0:
        m_Texture: {fileID: 0}
        m_Scale: {x: 1, y: 1}
        m_Offset: {x: 0, y: 0}
    - _Splat1:
        m_Texture: {fileID: 0}
        m_Scale: {x: 1, y: 1}
        m_Offset: {x: 0, y: 0}
    - _Splat2:
        m_Texture: {fileID: 0}
        m_Scale: {x: 1, y: 1}
        m_Offset: {x: 0, y: 0}
    - _Splat3:
        m_Texture: {fileID: 0}
        m_Scale: {x: 1, y: 1}
        m_Offset: {x: 0, y: 0}
    - _Tex:
        m_Texture: {fileID: 0}
        m_Scale: {x: 1, y: 1}
        m_Offset: {x: 0, y: 0}
    - _TexA:
        m_Texture: {fileID: 0}
        m_Scale: {x: 1, y: 1}
        m_Offset: {x: 0, y: 0}
    - _TexB:
        m_Texture: {fileID: 0}
        m_Scale: {x: 1, y: 1}
        m_Offset: {x: 0, y: 0}
    - _ThirdTex:
        m_Texture: {fileID: 0}
        m_Scale: {x: 1, y: 1}
        m_Offset: {x: 0, y: 0}
    - _ToonShade:
        m_Texture: {fileID: 0}
        m_Scale: {x: 1, y: 1}
        m_Offset: {x: 0, y: 0}
    - _TranslucencyMap:
        m_Texture: {fileID: 0}
        m_Scale: {x: 1, y: 1}
        m_Offset: {x: 0, y: 0}
    - _UpTex:
        m_Texture: {fileID: 0}
        m_Scale: {x: 1, y: 1}
        m_Offset: {x: 0, y: 0}
    m_Floats:
    - PixelSnap: 0
    - _AO: 2.4
    - _AtmosphereThickness: 1
    - _BaseLight: 0.35
    - _BlendOp: 0
    - _BumpAmt: 10
    - _BumpScale: 1
    - _CameraFadingEnabled: 0
    - _CameraFarFadeDistance: 2
    - _CameraNearFadeDistance: 1
    - _ColorMask: 15
    - _ColorMode: 0
    - _Cull: 2
    - _Cutoff: 0.5
    - _DetailNormalMapScale: 1
    - _DistortionBlend: 0.5
    - _DistortionEnabled: 0
    - _DistortionStrength: 1
    - _DistortionStrengthScaled: 0
    - _DstBlend: 1
    - _EdgeLength: 10
    - _Emission: 1
    - _EmissionEnabled: 0
    - _EnableExternalAlpha: 0
    - _Exposure: 1
    - _FlipbookMode: 0
    - _Focus: -100
    - _GlossMapScale: 1
    - _Glossiness: 0.5
    - _GlossyReflections: 1
    - _ImageType: 0
    - _InvFade: 1
    - _Layout: 0
    - _Level: 0
    - _LightingEnabled: 1
    - _Mapping: 1
    - _Metallic: 0
    - _Metallic0: 0
    - _Metallic1: 0
    - _Metallic2: 0
    - _Metallic3: 0
    - _MirrorOnBack: 0
    - _Mode: 0
    - _Occlusion: 7.5
    - _OcclusionStrength: 1
    - _Outline: 0.005
    - _Parallax: 0.5
    - _Rotation: 0
    - _Scale: 1
    - _ShadowStrength: 1
    - _Shininess: 0.078125
    - _Smoothness: 0.5
    - _Smoothness0: 1
    - _Smoothness1: 1
    - _Smoothness2: 1
    - _Smoothness3: 1
    - _SmoothnessTextureChannel: 0
    - _SoftParticlesEnabled: 0
    - _SoftParticlesFarFadeDistance: 1
    - _SoftParticlesNearFadeDistance: 0
    - _SpecularHighlights: 1
    - _SquashAmount: 1
    - _SrcBlend: 1
    - _Stencil: 0
    - _StencilComp: 8
    - _StencilOp: 0
    - _StencilReadMask: 255
    - _StencilWriteMask: 255
    - _Strength: 0.2
    - _SunDisk: 2
    - _SunSize: 0.04
    - _SunSizeConvergence: 5
    - _Texel: 0.0078125
    - _TranslucencyViewDependency: 0.7
    - _UVSec: 0
    - _UseUIAlphaClip: 0
    - _WindQuality: 0
    - _WireThickness: 100
    - _ZWrite: 1
    - _value: 0.5
    m_Colors:
    - _CameraFadeParams: {r: 0, g: 0, b: 0, a: 0}
    - _Color: {r: 1, g: 1, b: 1, a: 1}
    - _ColorAddSubDiff: {r: 0, g: 0, b: 0, a: 0}
    - _EmisColor: {r: 0.2, g: 0.2, b: 0.2, a: 0}
    - _Emission: {r: 0, g: 0, b: 0, a: 0}
    - _EmissionColor: {r: 0, g: 0, b: 0, a: 1}
    - _Flip: {r: 1, g: 1, b: 1, a: 1}
    - _GroundColor: {r: 0.369, g: 0.349, b: 0.341, a: 1}
    - _HueVariation: {r: 1, g: 0.5, b: 0, a: 0.1}
    - _OutlineColor: {r: 0, g: 0, b: 0, a: 1}
    - _ReflectColor: {r: 1, g: 1, b: 1, a: 0.5}
    - _RendererColor: {r: 1, g: 1, b: 1, a: 1}
    - _SkyTint: {r: 0.5, g: 0.5, b: 0.5, a: 1}
    - _SoftParticleFadeParams: {r: 0, g: 0, b: 0, a: 0}
    - _SpecColor: {r: 0.5, g: 0.5, b: 0.5, a: 1}
    - _Specular: {r: 0, g: 0, b: 0, a: 0}
    - _Tint: {r: 0.5, g: 0.5, b: 0.5, a: 0.5}
    - _TintColor: {r: 0.5, g: 0.5, b: 0.5, a: 0.5}
    - _TranslucencyColor: {r: 0.73, g: 0.85, b: 0.41, a: 1}
    - _TreeInstanceColor: {r: 1, g: 1, b: 1, a: 1}
    - _TreeInstanceScale: {r: 1, g: 1, b: 1, a: 1}
